<?xml version="1.0" encoding="utf-8"?>
<COLLADA xmlns="http://www.collada.org/2005/11/COLLADASchema" version="1.4.1" xmlns:xsi="http://www.w3.org/2001/XMLSchema-instance">
  <asset>
    <contributor>
      <author>Blender User</author>
      <authoring_tool>Blender 2.80.75 commit date:2019-07-29, commit time:14:47, hash:f6cb5f54494e</authoring_tool>
    </contributor>
    <created>2021-07-22T14:50:48</created>
    <modified>2021-07-22T14:50:48</modified>
    <unit name="meter" meter="1"/>
    <up_axis>Z_UP</up_axis>
  </asset>
  <library_cameras>
    <camera id="Camera-camera" name="Camera">
      <optics>
        <technique_common>
          <perspective>
            <xfov sid="xfov">39.59775</xfov>
            <aspect_ratio>1.777778</aspect_ratio>
            <znear sid="znear">0.1</znear>
            <zfar sid="zfar">100</zfar>
          </perspective>
        </technique_common>
      </optics>
      <extra>
        <technique profile="blender">
          <shiftx sid="shiftx" type="float">0</shiftx>
          <shifty sid="shifty" type="float">0</shifty>
          <dof_distance sid="dof_distance" type="float">10</dof_distance>
        </technique>
      </extra>
    </camera>
  </library_cameras>
  <library_lights>
    <light id="Light-light" name="Light">
      <technique_common>
        <point>
          <color sid="color">1000 1000 1000</color>
          <constant_attenuation>1</constant_attenuation>
          <linear_attenuation>0</linear_attenuation>
          <quadratic_attenuation>0.00111109</quadratic_attenuation>
        </point>
      </technique_common>
      <extra>
        <technique profile="blender">
          <type sid="type" type="int">0</type>
          <flag sid="flag" type="int">0</flag>
          <mode sid="mode" type="int">1</mode>
          <gamma sid="blender_gamma" type="float">1</gamma>
          <red sid="red" type="float">1</red>
          <green sid="green" type="float">1</green>
          <blue sid="blue" type="float">1</blue>
          <shadow_r sid="blender_shadow_r" type="float">0</shadow_r>
          <shadow_g sid="blender_shadow_g" type="float">0</shadow_g>
          <shadow_b sid="blender_shadow_b" type="float">0</shadow_b>
          <energy sid="blender_energy" type="float">1000</energy>
          <dist sid="blender_dist" type="float">29.99998</dist>
          <spotsize sid="spotsize" type="float">75</spotsize>
          <spotblend sid="spotblend" type="float">0.15</spotblend>
          <att1 sid="att1" type="float">0</att1>
          <att2 sid="att2" type="float">1</att2>
          <falloff_type sid="falloff_type" type="int">2</falloff_type>
          <clipsta sid="clipsta" type="float">0.04999995</clipsta>
          <clipend sid="clipend" type="float">30.002</clipend>
          <bias sid="bias" type="float">1</bias>
          <soft sid="soft" type="float">3</soft>
          <bufsize sid="bufsize" type="int">2880</bufsize>
          <samp sid="samp" type="int">3</samp>
          <buffers sid="buffers" type="int">1</buffers>
          <area_shape sid="area_shape" type="int">1</area_shape>
          <area_size sid="area_size" type="float">0.1</area_size>
          <area_sizey sid="area_sizey" type="float">0.1</area_sizey>
          <area_sizez sid="area_sizez" type="float">1</area_sizez>
        </technique>
      </extra>
    </light>
  </library_lights>
  <library_effects>
    <effect id="Material-effect">
      <profile_COMMON>
        <technique sid="common">
          <lambert>
            <emission>
              <color sid="emission">0 0 0 1</color>
            </emission>
            <diffuse>
              <color sid="diffuse">0.539198 0.05662882 0.8000001 1</color>
            </diffuse>
            <index_of_refraction>
              <float sid="ior">1.45</float>
            </index_of_refraction>
          </lambert>
        </technique>
      </profile_COMMON>
    </effect>
  </library_effects>
  <library_images/>
  <library_materials>
    <material id="Material-material" name="Material">
      <instance_effect url="#Material-effect"/>
    </material>
  </library_materials>
  <library_geometries>
    <geometry id="Cube-mesh" name="Cube">
      <mesh>
        <source id="Cube-mesh-positions">
          <float_array id="Cube-mesh-positions-array" count="222">-1.596146 1.310241 0.1604996 -0.3909401 0.5227789 0.06104725 -0.5240203 0.7610884 0.08832681 -0.6880711 0.9510803 0.1107803 -0.8488829 1.066087 0.1251201 -0.9949465 1.167656 0.1378336 -1.196966 1.252677 0.1494458 -1.368679 1.292077 0.1557769 -0.302147 0.249283 0.08706307 -0.2806419 0.009398519 0.1099956 -0.3031554 -0.2455649 0.1344614 -0.3693364 -0.4658495 0.1556939 -0.4988425 -0.7328596 0.1304888 -0.7096272 -0.9560409 0.1074206 -0.9071483 -1.136099 0.08827394 -1.076815 -1.225599 0.07736223 -1.281116 -1.304467 0.06667792 -1.474806 -1.348836 0.05913072 -1.669547 -1.350408 0.05519807 -1.649725 -1.224347 0.0662918 -1.375107 -1.209541 0.07290685 -1.115226 -1.119418 0.08563143 -0.9049936 -0.9904568 0.1006861 -0.7004906 -0.803103 0.1205887 -0.5290188 -0.553695 0.1451175 -0.4311435 -0.2816943 0.1701294 -0.4001589 -0.02691531 0.1923736 -0.4267803 0.2408282 0.2145952 -0.4982962 0.4704392 0.2327021 -0.6110776 0.6891205 0.2490757 -0.7684034 0.8554034 0.2601298 -0.9273317 0.970264 0.2667851 -1.094568 1.073517 0.2722923 -1.290709 1.129009 0.2731791 -1.512125 1.163943 0.2718267 -1.582718 1.180894 0.2718893 -1.574834 1.268144 0.2794536 -0.6233839 0.6887475 -0.1491023 -0.4903037 0.450438 -0.1763819 -0.7874347 0.8787395 -0.1266489 -0.9482464 0.9937463 -0.112309 -1.09431 1.095316 -0.09959554 -1.296329 1.180336 -0.08798336 -1.468043 1.219736 -0.08165222 -1.69551 1.2379 -0.0769295 -0.4015105 0.1769421 -0.1503661 -0.3800054 -0.06294226 -0.1274335 -0.402519 -0.3179057 -0.1029677 -0.4686999 -0.5381904 -0.08173525 -0.5982061 -0.8052005 -0.1069403 -0.8089908 -1.028382 -0.1300085 -1.006512 -1.20844 -0.1491552 -1.176179 -1.29794 -0.1600669 -1.38048 -1.376808 -0.1707512 -1.57417 -1.421177 -0.1782984 -1.76891 -1.422749 -0.1822311 -1.749089 -1.296688 -0.1711373 -1.47447 -1.281882 -0.1645223 -1.21459 -1.191759 -0.1517977 -1.004357 -1.062798 -0.136743 -0.7998542 -0.8754439 -0.1168404 -0.6283824 -0.6260359 -0.09231168 -0.5305071 -0.3540351 -0.06729972 -0.4995225 -0.09925609 -0.0450555 -0.5261439 0.1684873 -0.02283394 -0.5976598 0.3980984 -0.004727005 -0.7104412 0.6167797 0.0116465 -0.867767 0.7830626 0.0227006 -1.026695 0.8979232 0.02935588 -1.193932 1.001176 0.03486311 -1.390072 1.056668 0.03574985 -1.611488 1.091602 0.03439748 -1.682082 1.108553 0.03446006 -1.674198 1.195803 0.04202443</float_array>
          <technique_common>
            <accessor source="#Cube-mesh-positions-array" count="74" stride="3">
              <param name="X" type="float"/>
              <param name="Y" type="float"/>
              <param name="Z" type="float"/>
            </accessor>
          </technique_common>
        </source>
        <source id="Cube-mesh-normals">
          <float_array id="Cube-mesh-normals-array" count="432">-0.5698474 0.0115357 -0.8216696 0.5698474 -0.0115357 0.8216696 -0.8672781 -0.2400869 0.4361044 0.2169391 0.904788 -0.3664643 0.5202213 -0.8529892 0.04218089 -0.9167048 -0.04421722 0.3971111 0.9267422 -0.05147379 -0.3721553 0.6774677 -0.7330883 -0.06015825 -0.9283427 0.1158666 0.3532066 0.9028482 -0.3281037 -0.2778725 0.8191172 -0.5457965 -0.1765033 -0.9089092 0.3008937 0.2886989 0.9089855 -0.3005242 -0.2888437 -0.8810968 0.404169 0.2455933 0.9279971 -0.08110755 -0.3636524 -0.7285391 0.677908 0.0983442 0.9013231 0.1240607 -0.4150009 -0.6756255 0.7348936 0.05883729 -0.7523482 -0.4726641 0.4588692 0.8447666 0.2981587 -0.444377 -0.4613692 0.8839269 -0.07623606 -0.6459344 -0.6117132 0.4567009 0.7760509 0.434464 -0.4571498 -0.3506293 0.926646 -0.1355963 -0.4972751 -0.7497615 0.4365493 0.6313702 0.6276382 -0.4554582 -0.2111217 0.9561543 -0.20297 -0.4882812 -0.7566154 0.4348731 0.5139758 0.7366372 -0.4395391 -0.001850426 0.9567983 -0.2907467 -0.3358203 -0.8526241 0.4003212 0.4639672 0.7744219 -0.4301225 0.9283497 -0.1148627 -0.3535158 -0.1960198 -0.9121471 0.3599501 0.2506129 0.8918299 -0.3766068 0.04520332 -0.9607241 0.2737992 -0.06895208 -0.9458969 0.3170562 0.1483594 0.9269806 -0.3445236 0.3171405 -0.9360414 0.1524742 -0.6518335 -0.4949267 -0.5745961 -0.7474325 -0.3529662 -0.562814 -0.7462478 -0.34211 -0.5710298 -0.7640246 -0.3022686 -0.5700001 -0.7048158 -0.1298558 -0.697404 -0.7001605 -0.1632629 -0.6950688 -0.5610981 -0.02983188 -0.8272117 -0.2649329 -0.01333874 -0.9641746 0.01943516 0.08461469 -0.9962242 0.01943516 0.08461475 -0.9962243 0.0194351 0.08461463 -0.9962243 0.01943504 0.08461463 -0.9962242 0.01943498 0.08461457 -0.9962243 0.0194351 0.08461469 -0.9962243 0.0194351 0.08461463 -0.9962243 0.01943504 0.08461475 -0.9962243 0.01943498 0.08461469 -0.9962243 0.0194351 0.08461463 -0.9962243 0.01943498 0.08461475 -0.9962243 -0.2975503 0.1188908 -0.9472745 -0.4676267 -0.5901042 -0.6581052 -0.4832438 -0.5957167 -0.6415584 -0.4590011 -0.5969782 -0.6579781 -0.1721655 -0.62845 -0.7585576 -0.3142256 -0.6524491 -0.6896177 -0.857378 -0.5139111 -0.02825999 -0.06625121 -0.6280542 -0.7753444 0.0194351 0.08461505 -0.9962242 -0.09147959 -0.6102703 -0.7868937 -0.1800305 -0.6241833 -0.7602527 -0.3896293 -0.5935145 -0.7042228 0.01943516 0.08461463 -0.9962242 0.0194351 0.08461469 -0.9962243 -0.5806055 -0.5069785 -0.6370795 0.7474327 0.3529666 0.5628134 0.6518335 0.4949267 0.5745962 0.5806055 0.5069785 0.6370794 0.4832441 0.5957165 0.6415583 0.4676269 0.5901045 0.6581047 0.459001 0.596978 0.6579783 0.3142257 0.6524494 0.6896173 0.1721653 0.6284501 0.7585577 0.06625127 0.6280537 0.7753447 0.857378 0.5139107 0.02826201 -0.01943504 -0.08461469 0.9962243 0.09147965 0.6102712 0.7868931 0.1800305 0.6241829 0.7602531 0.7048159 0.1298558 0.6974039 0.7640247 0.3022683 0.57 0.2649332 0.01333886 0.9641745 0.5610981 0.029832 0.8272116 0.2975502 -0.1188908 0.9472745 -0.01943504 -0.08461469 0.9962243 -0.01943528 -0.08461475 0.9962242 -0.01943504 -0.08461475 0.9962243 -0.01943504 -0.08461463 0.9962242 -0.0194348 -0.08461481 0.9962243 -0.01943528 -0.08461457 0.9962243 -0.01943486 -0.08461469 0.9962242 -0.01943522 -0.08461475 0.9962243 -0.01943504 -0.08461475 0.9962243 -0.01943492 -0.08461469 0.9962242 -0.01943504 -0.08461463 0.9962242 -0.01943504 -0.08461469 0.9962242 0.3896296 0.593514 0.7042229 -0.01943516 -0.08461463 0.9962242 0.7001602 0.1632634 0.695069 0.7462477 0.3421097 0.5710301 -0.867278 -0.2400872 0.4361044 0.2169398 0.9047876 -0.3664649 0.5202214 -0.8529892 0.04218095 -0.9167048 -0.04421746 0.3971111 0.9267421 -0.05147993 -0.3721544 0.6774676 -0.7330884 -0.06015914 -0.9283427 0.1158668 0.3532065 0.9028474 -0.3281078 -0.2778702 0.8191169 -0.5457969 -0.176503 -0.9089093 0.3008937 0.2886989 0.9089857 -0.3005235 -0.2888435 -0.8810968 0.4041689 0.2455933 0.9279971 -0.08110743 -0.3636524 -0.7285392 0.6779078 0.09834444 0.9013231 0.1240607 -0.4150009 -0.6756251 0.7348939 0.05883771 -0.7523483 -0.4726641 0.458869 0.8447666 0.2981588 -0.4443769 -0.4613698 0.8839265 -0.07623612 -0.6459341 -0.6117134 0.4567012 0.7760508 0.4344646 -0.4571496 -0.3506297 0.9266457 -0.135597 -0.4972751 -0.7497617 0.4365487 0.6313698 0.6276384 -0.4554582 -0.2111219 0.9561541 -0.2029703 -0.4882808 -0.7566155 0.4348737 0.5139765 0.7366368 -0.439539 -0.001850426 0.9567983 -0.2907471 -0.3358199 -0.8526244 0.4003207 0.4639672 0.7744218 -0.4301228 0.9283502 -0.1148603 -0.3535156 -0.1960199 -0.9121467 0.3599509 0.2506129 0.8918295 -0.3766078 0.04520326 -0.9607241 0.2737991 -0.0689519 -0.945897 0.3170563 0.1483594 0.9269801 -0.3445248 0.3171407 -0.9360413 0.1524748</float_array>
          <technique_common>
            <accessor source="#Cube-mesh-normals-array" count="144" stride="3">
              <param name="X" type="float"/>
              <param name="Y" type="float"/>
              <param name="Z" type="float"/>
            </accessor>
          </technique_common>
        </source>
        <source id="Cube-mesh-map-0">
          <float_array id="Cube-mesh-map-0-array" count="864">0 0 0 0 0 0 0 0 0 0 0 0 0 0 0 0 0 0 0 0 0 0 0 0 0 0 0 0 0 0 0 0 0 0 0 0 0 0 0 0 0 0 0 0 0 0 0 0 0 0 0 0 0 0 0 0 0 0 0 0 0 0 0 0 0 0 0 0 0 0 0 0 0 0 0 0 0 0 0 0 0 0 0 0 0 0 0 0 0 0 0 0 0 0 0 0 0 0 0 0 0 0 0 0 0 0 0 0 0 0 0 0 0 0 0 0 0 0 0 0 0 0 0 0 0 0 0 0 0 0 0 0 0 0 0 0 0 0 0 0 0 0 0 0 0 0 0 0 0 0 0 0 0 0 0 0 0 0 0 0 0 0 0 0 0 0 0 0 0 0 0 0 0 0 0 0 0 0 0 0 0 0 0 0 0 0 0 0 0 0 0 0 0 0 0 0 0 0 0 0 0 0 0 0 0 0 0 0 0 0 0 0 0 0 0 0 0 0 0 0 0 0 0 0 0 0 0 0 0 0 0 0 0 0 0 0 0 0 0 0 0 0 0 0 0 0 0 0 0 0 0 0 0 0 0 0 0 0 0 0 0 0 0 0 0 0 0 0 0 0 0 0 0 0 0 0 0 0 0 0 0 0 0 0 0 0 0 0 0 0 0 0 0 0 0 0 0 0 0 0 0 0 0 0 0 0 0 0 0 0 0 0 0 0 0 0 0 0 0 0 0 0 0 0 0 0 0 0 0 0 0 0 0 0 0 0 0 0 0 0 0 0 0 0 0 0 0 0 0 0 0 0 0 0 0 0 0 0 0 0 0 0 0 0 0 0 0 0 0 0 0 0 0 0 0 0 0 0 0 0 0 0 0 0 0 0 0 0 0 0 0 0 0 0 0 0 0 0 0 0 0 0 0 0 0 0 0 0 0 0 0 0 0 0 0 0 0 0 0 0 0 0 0 0 0 0 0 0 0 0 0 0 0 0 0 0 0 0 0 0 0 0 0 0 0 0 0 0 0 0 0 0 0 0 0 0 0 0 0 0 0 0 0 0 0 0 0 0 0 0 0 0 0 0 0 0 0 0 0 0 0 0 0 0 0 0 0 0 0 0 0 0 0 0 0 0 0 0 0 0 0 0 0 0 0 0 0 0 0 0 0 0 0 0 0 0 0 0 0 0 0 0 0 0 0 0 0 0 0 0 0 0 0 0 0 0 0 0 0 0 0 0 0 0 0 0 0 0 0 0 0 0 0 0 0 0 0 0 0 0 0 0 0 0 0 0 0 0 0 0 0 0 0 0 0 0 0 0 0 0 0 0 0 0 0 0 0 0 0 0 0 0 0 0 0 0 0 0 0 0 0 0 0 0 0 0 0 0 0 0 0 0 0 0 0 0 0 0 0 0 0 0 0 0 0 0 0 0 0 0 0 0 0 0 0 0 0 0 0 0 0 0 0 0 0 0 0 0 0 0 0 0 0 0 0 0 0 0 0 0 0 0 0 0 0 0 0 0 0 0 0 0 0 0 0 0 0 0 0 0 0 0 0 0 0 0 0 0 0 0 0 0 0 0 0 0 0 0 0 0 0 0 0 0 0 0 0 0 0 0 0 0 0 0 0 0 0 0 0 0 0 0 0 0 0 0 0 0 0 0 0 0 0 0 0 0 0 0 0 0 0 0 0 0 0 0 0 0 0 0 0 0 0 0 0 0 0 0 0 0 0 0 0 0 0 0 0 0 0 0 0 0 0 0 0 0 0 0 0 0 0 0 0 0 0 0 0 0 0 0 0 0 0 0 0 0 0 0 0 0 0 0 0 0 0 0 0 0 0 0 0 0 0 0 0 0 0 0 0 0 0 0 0 0 0 0 0 0 0 0 0 0 0 0 0 0 0 0 0 0 0 0 0 0 0 0 0 0 0 0 0 0 0 0 0 0 0 0 0 0 0 0 0 0</float_array>
          <technique_common>
            <accessor source="#Cube-mesh-map-0-array" count="432" stride="2">
              <param name="S" type="float"/>
              <param name="T" type="float"/>
            </accessor>
          </technique_common>
        </source>
        <vertices id="Cube-mesh-vertices">
          <input semantic="POSITION" source="#Cube-mesh-positions"/>
        </vertices>
        <triangles material="Material-material" count="144">
          <input semantic="VERTEX" source="#Cube-mesh-vertices" offset="0"/>
          <input semantic="NORMAL" source="#Cube-mesh-normals" offset="1"/>
          <input semantic="TEXCOORD" source="#Cube-mesh-map-0" offset="2" set="0"/>
          <p>9 0 0 26 0 1 27 0 2 64 1 3 63 1 4 46 1 5 8 2 6 38 2 7 45 2 8 35 3 9 71 3 10 72 3 11 21 4 12 59 4 13 22 4 14 9 5 15 45 5 16 46 5 17 35 6 18 73 6 19 36 6 20 22 7 21 60 7 22 23 7 23 10 8 24 46 8 25 47 8 26 0 9 27 73 9 28 44 9 29 23 10 30 61 10 31 24 10 32 11 11 33 47 11 34 48 11 35 24 12 36 62 12 37 25 12 38 12 13 39 48 13 40 49 13 41 25 14 42 63 14 43 26 14 44 13 15 45 49 15 46 50 15 47 26 16 48 64 16 49 27 16 50 14 17 51 50 17 52 51 17 53 1 18 54 37 18 55 38 18 56 27 19 57 65 19 58 28 19 59 15 20 60 51 20 61 52 20 62 2 21 63 39 21 64 37 21 65 28 22 66 66 22 67 29 22 68 16 23 69 52 23 70 53 23 71 4 24 72 39 24 73 3 24 74 30 25 75 66 25 76 67 25 77 17 26 78 53 26 79 54 26 80 5 27 81 40 27 82 4 27 83 31 28 84 67 28 85 68 28 86 18 29 87 54 29 88 55 29 89 6 30 90 41 30 91 5 30 92 32 31 93 68 31 94 69 31 95 18 32 96 56 32 97 19 32 98 7 33 99 42 33 100 6 33 101 33 34 102 69 34 103 70 34 104 19 35 105 57 35 106 20 35 107 0 36 108 43 36 109 7 36 110 34 37 111 70 37 112 71 37 113 20 38 114 58 38 115 21 38 116 3 39 117 2 39 118 29 39 119 2 40 120 1 40 121 29 40 122 29 41 123 1 41 124 28 41 125 1 42 126 8 42 127 28 42 128 8 43 129 9 43 130 27 43 131 28 44 132 8 44 133 27 44 134 9 45 135 10 45 136 26 45 137 10 46 138 11 46 139 25 46 140 11 47 141 12 47 142 24 47 143 12 48 144 13 48 145 23 48 146 24 49 147 12 49 148 23 49 149 13 50 150 14 50 151 22 50 152 14 51 153 15 51 154 21 51 155 22 52 156 14 52 157 21 52 158 15 53 159 16 53 160 21 53 161 16 54 162 17 54 163 20 54 164 21 55 165 16 55 166 20 55 167 17 56 168 18 56 169 19 56 170 17 57 171 19 57 172 20 57 173 10 58 174 25 58 175 26 58 176 5 59 177 4 59 178 31 59 179 4 60 180 3 60 181 30 60 182 31 61 183 4 61 184 30 61 185 7 62 186 6 62 187 33 62 188 6 63 189 5 63 190 32 63 191 36 64 192 0 64 193 34 64 194 0 65 195 7 65 196 34 65 197 34 66 198 35 66 199 36 66 200 33 67 201 34 67 202 7 67 203 6 68 204 32 68 205 33 68 206 32 69 207 5 69 208 31 69 209 13 70 210 22 70 211 23 70 212 11 71 213 24 71 214 25 71 215 29 72 216 30 72 217 3 72 218 38 73 219 37 73 220 66 73 221 37 74 222 39 74 223 66 74 224 66 75 225 39 75 226 67 75 227 39 76 228 40 76 229 67 76 230 40 77 231 41 77 232 68 77 233 67 78 234 40 78 235 68 78 236 41 79 237 42 79 238 69 79 239 42 80 240 43 80 241 70 80 242 43 81 243 44 81 244 71 81 245 44 82 246 73 82 247 71 82 248 73 83 249 72 83 250 71 83 251 71 84 252 70 84 253 43 84 254 42 85 255 70 85 256 69 85 257 46 86 258 45 86 259 64 86 260 45 87 261 38 87 262 65 87 263 48 88 264 47 88 265 62 88 266 47 89 267 46 89 268 63 89 269 62 90 270 47 90 271 63 90 272 50 91 273 49 91 274 60 91 275 49 92 276 48 92 277 61 92 278 52 93 279 51 93 280 58 93 281 51 94 282 50 94 283 59 94 284 54 95 285 53 95 286 57 95 287 53 96 288 52 96 289 58 96 290 56 97 291 55 97 292 54 97 293 57 98 294 56 98 295 54 98 296 53 99 297 58 99 298 57 99 299 51 100 300 59 100 301 58 100 302 49 101 303 61 101 304 60 101 305 61 102 306 48 102 307 62 102 308 41 103 309 69 103 310 68 103 311 60 104 312 59 104 313 50 104 314 45 105 315 65 105 316 64 105 317 38 106 318 66 106 319 65 106 320 8 107 321 1 107 322 38 107 323 35 108 324 34 108 325 71 108 326 21 109 327 58 109 328 59 109 329 9 110 330 8 110 331 45 110 332 35 111 333 72 111 334 73 111 335 22 112 336 59 112 337 60 112 338 10 113 339 9 113 340 46 113 341 0 114 342 36 114 343 73 114 344 23 115 345 60 115 346 61 115 347 11 116 348 10 116 349 47 116 350 24 117 351 61 117 352 62 117 353 12 118 354 11 118 355 48 118 356 25 119 357 62 119 358 63 119 359 13 120 360 12 120 361 49 120 362 26 121 363 63 121 364 64 121 365 14 122 366 13 122 367 50 122 368 1 123 369 2 123 370 37 123 371 27 124 372 64 124 373 65 124 374 15 125 375 14 125 376 51 125 377 2 126 378 3 126 379 39 126 380 28 127 381 65 127 382 66 127 383 16 128 384 15 128 385 52 128 386 4 129 387 40 129 388 39 129 389 30 130 390 29 130 391 66 130 392 17 131 393 16 131 394 53 131 395 5 132 396 41 132 397 40 132 398 31 133 399 30 133 400 67 133 401 18 134 402 17 134 403 54 134 404 6 135 405 42 135 406 41 135 407 32 136 408 31 136 409 68 136 410 18 137 411 55 137 412 56 137 413 7 138 414 43 138 415 42 138 416 33 139 417 32 139 418 69 139 419 19 140 420 56 140 421 57 140 422 0 141 423 44 141 424 43 141 425 34 142 426 33 142 427 70 142 428 20 143 429 57 143 430 58 143 431</p>
        </triangles>
      </mesh>
    </geometry>
  </library_geometries>
  <library_visual_scenes>
    <visual_scene id="Scene" name="Scene">
      <node id="Empty" name="Empty" type="NODE">
        <matrix sid="transform">1 0 0 0 0 1 0 0 0 0 1 0 0 0 0 1</matrix>
      </node>
      <node id="Camera" name="Camera" type="NODE">
        <matrix sid="transform">0.6859207 -0.3240135 0.6515582 7.358891 0.7276763 0.3054208 -0.6141704 -6.925791 0 0.8953956 0.4452714 4.958309 0 0 0 1</matrix>
        <instance_camera url="#Camera-camera"/>
      </node>
      <node id="Light" name="Light" type="NODE">
        <matrix sid="transform">-0.2908646 -0.7711008 0.5663932 4.076245 0.9551712 -0.1998834 0.2183912 1.005454 -0.05518906 0.6045247 0.7946723 5.903862 0 0 0 1</matrix>
        <instance_light url="#Light-light"/>
      </node>
      <node id="Cube" name="Cube" type="NODE">
        <matrix sid="transform">1 0 0 0 0 1 0 0 0 0 1 0 0 0 0 1</matrix>
        <instance_geometry url="#Cube-mesh" name="Cube">
          <bind_material>
            <technique_common>
              <instance_material symbol="Material-material" target="#Material-material">
                <bind_vertex_input semantic="UVMap" input_semantic="TEXCOORD" input_set="0"/>
              </instance_material>
            </technique_common>
          </bind_material>
        </instance_geometry>
      </node>
    </visual_scene>
  </library_visual_scenes>
  <scene>
    <instance_visual_scene url="#Scene"/>
  </scene>
</COLLADA>